[
    {
        "id": "7042207903",
        "region_id": "13",
        "region_name": "Timis",
        "city_id": "97487",
        "city_name": "Timisoara",
        "district_id": "",
        "district_name": "",
        "new_used": "used",
        "url": "https://www.autovit.ro/anunt/nissan-tiida-ID7GAnYr.html",
        "preview_url": "https://www.autovit.ro/i2/anunt/nissan-tiida-ID7GAnYr.html?json=1&isPreview=1",
        "title": "Nissan Tiida",
        "title_description_full": "Nissan Tiida",
        "created": "Azi 11:00",
        "age": 450,
        "description": "Stare foarte buna !!!\r\nIstoric de service la zi !!!",
        "highlighted": 0,
        "urgent": 0,
        "topAd": 0,
        "category_id": 29,
        "ad_packages": "Silver",
        "ad_features": [
            "add_olx"
        ],
        "params": [
            [
                "Categorie",
                "Autoturisme"
            ],
            [
                "Marca",
                "Nissan"
            ],
            [
                "Model",
                "Tiida"
            ],
            [
                "Anul fabricatiei",
                "2007 "
            ],
            [
                "Kilometraj",
                "124 100 km"
            ],
            [
                "Combustibil",
                "Diesel"
            ],
            [
                "Putere",
                "106 CP"
            ],
            [
                "Capacitate cilindrica",
                "1 461 cm3"
            ],
            [
                "Transmisie",
                "Fata"
            ],
            [
                "Cutie de viteze",
                "Manuala"
            ],
            [
                "Norma de poluare",
                "Euro 4"
            ],
            [
                "Caroserie",
                "Compacta"
            ],
            [
                "Numar de portiere",
                "5 "
            ],
            [
                "Culoare",
                "Gri"
            ],
            [
                "Vopsea metalizata",
                "Da"
            ],
            [
                "Tara de origine",
                "Romania"
            ],
            [
                "Data primei inmatriculari",
                "05/12/2008"
            ],
            [
                "Inmatriculat",
                "Da"
            ],
            [
                "Numar anunt",
                "7042207903"
            ],
            [
                "Stare",
                "Second hand"
            ]
        ],
        "subtitle": [],
        "business": 1,
        "hide_user_ads_button": 0,
        "has_dealer_page_feature": true,
        "status": "active",
        "dealer_logo_in_results": 0,
        "dealer_logo_in_ad_page": 0,
        "dealer_logo": "",
        "stand_id": "",
        "map_address": "",
        "external_partner_code": "",
        "partner_offer_url": "",
        "fuel_type": {
            "key": "diesel",
            "value": "Diesel"
        },
        "is_promoted": false,
        "dealer_info": {
            "userType": "Dealer Autorizat",
            "reliabilityBadgeUrl": "https://ireland.apollo.olxcdn.com/v1/files/eyJmbiI6InhrOWIxc2FrazFoNC1BVVRPVklUUk8ifQ.FIgxBb7a_9Uu0ZW5HJr1Fp6mXdmhyKoBBl8kTHCEMLw/image;s=295x75",
            "dealer_logo": "",
            "aboutUs": {
                "name": null,
                "description": "Dealerul nu are o descriere"
            },
            "opening_hours": [
                {
                    "is_open": 0,
                    "day_name_ro": "duminica",
                    "day_name_en": "Sunday",
                    "day_name_translated": "duminica"
                },
                {
                    "is_open": 0,
                    "day_name_ro": "luni",
                    "day_name_en": "Monday",
                    "day_name_translated": "luni"
                },
                {
                    "is_open": 0,
                    "day_name_ro": "marti",
                    "day_name_en": "Tuesday",
                    "day_name_translated": "marti"
                },
                {
                    "is_open": 0,
                    "day_name_ro": "miercuri",
                    "day_name_en": "Wednesday",
                    "day_name_translated": "miercuri"
                },
                {
                    "is_open": 0,
                    "day_name_ro": "joi",
                    "day_name_en": "Thursday",
                    "day_name_translated": "joi"
                },
                {
                    "is_open": 0,
                    "day_name_ro": "vineri",
                    "day_name_en": "Friday",
                    "day_name_translated": "vineri"
                },
                {
                    "is_open": 0,
                    "day_name_ro": "sambata",
                    "day_name_en": "Saturday",
                    "day_name_translated": "sambata"
                }
            ],
            "address": "Str. Calea Sagului nr.142A - 300517 Timisoara, Judet Timis (Romania)",
            "dealer_contact_email": "director.vanzari@autoeuropa.ro",
            "phones": [
                "078",
                "078",
                "078"
            ],
            "userRegistrationDate": "15-11-2010",
            "isCalltrackingUser": 1
        },
        "has_phone": 1,
        "has_email": 1,
        "listing_params": [
            [
                "Anul fabricatiei",
                "2007 "
            ],
            [
                "Kilometraj",
                "124 100 km"
            ],
            [
                "Combustibil",
                "Diesel"
            ],
            [
                "Capacitate cilindrica",
                "1 461 cm3"
            ]
        ],
        "map_zoom": "13",
        "map_lat": "45.75550000",
        "map_lon": "21.23750000",
        "map_radius": 0,
        "map_show_detailed": true,
        "map_private_radius_size": 2,
        "show_map_for_private": false,
        "city_label": "Timisoara",
        "person": "AUTO EUROPA SELECTION",
        "user_label": "AUTO EUROPA SELECTION",
        "user_ads_id": "4VO",
        "user_id": "4VO",
        "numeric_user_id": "19022",
        "user_ads_url": "https://www.autovit.ro/i2/anunturi/user/4VO/?json=1&search%5Buser_id%5D=19022",
        "list_label": "2 990 EUR",
        "list_label_ad": "2 990 EUR",
        "list_label_small": "Negociabil\n",
        "photos": [
            {
                "3": "https://ireland.apollo.olxcdn.com/v1/files/eyJmbiI6InZ5d3ExNzZ2bWllczItQVVUT1ZJVFJPIiwidyI6W3siZm4iOiJxN216NTNiaWZwemstQVVUT1ZJVFJPIiwicyI6IjE2IiwicCI6IjEwLC0xMCIsImEiOiIwIn1dfQ.eeYRtcaIGzNRp0YIAYUCpwG08QC0SDrs46rWQMX-Zug/image;s=1080x720",
                "0": "https://ireland.apollo.olxcdn.com/v1/files/eyJmbiI6InZ5d3ExNzZ2bWllczItQVVUT1ZJVFJPIiwidyI6W3siZm4iOiJxN216NTNiaWZwemstQVVUT1ZJVFJPIiwicyI6IjE2IiwicCI6IjEwLC0xMCIsImEiOiIwIn1dfQ.eeYRtcaIGzNRp0YIAYUCpwG08QC0SDrs46rWQMX-Zug/image;s=732x488",
                "1": "https://ireland.apollo.olxcdn.com/v1/files/eyJmbiI6InZ5d3ExNzZ2bWllczItQVVUT1ZJVFJPIiwidyI6W3siZm4iOiJxN216NTNiaWZwemstQVVUT1ZJVFJPIiwicyI6IjE2IiwicCI6IjEwLC0xMCIsImEiOiIwIn1dfQ.eeYRtcaIGzNRp0YIAYUCpwG08QC0SDrs46rWQMX-Zug/image;s=148x110",
                "2": "https://ireland.apollo.olxcdn.com/v1/files/eyJmbiI6InZ5d3ExNzZ2bWllczItQVVUT1ZJVFJPIiwidyI6W3siZm4iOiJxN216NTNiaWZwemstQVVUT1ZJVFJPIiwicyI6IjE2IiwicCI6IjEwLC0xMCIsImEiOiIwIn1dfQ.eeYRtcaIGzNRp0YIAYUCpwG08QC0SDrs46rWQMX-Zug/image;s=320x240",
                "4": "https://ireland.apollo.olxcdn.com/v1/files/eyJmbiI6InZ5d3ExNzZ2bWllczItQVVUT1ZJVFJPIn0.-g00QCmyeR_N7fBCn9ZzuXf2-OlZgTtmGIe2ZfL-Oco/image;s=1280x800"
            },
            {
                "3": "https://ireland.apollo.olxcdn.com/v1/files/eyJmbiI6InE2czM2ZjhsMnhsYy1BVVRPVklUUk8iLCJ3IjpbeyJmbiI6InE3bXo1M2JpZnB6ay1BVVRPVklUUk8iLCJzIjoiMTYiLCJwIjoiMTAsLTEwIiwiYSI6IjAifV19.koSwhJ-zCRU8bFAKFfQAa5aVNd0cfU6HGRmI4OE0tLU/image;s=1080x720",
                "0": "https://ireland.apollo.olxcdn.com/v1/files/eyJmbiI6InE2czM2ZjhsMnhsYy1BVVRPVklUUk8iLCJ3IjpbeyJmbiI6InE3bXo1M2JpZnB6ay1BVVRPVklUUk8iLCJzIjoiMTYiLCJwIjoiMTAsLTEwIiwiYSI6IjAifV19.koSwhJ-zCRU8bFAKFfQAa5aVNd0cfU6HGRmI4OE0tLU/image;s=732x488",
                "1": "https://ireland.apollo.olxcdn.com/v1/files/eyJmbiI6InE2czM2ZjhsMnhsYy1BVVRPVklUUk8iLCJ3IjpbeyJmbiI6InE3bXo1M2JpZnB6ay1BVVRPVklUUk8iLCJzIjoiMTYiLCJwIjoiMTAsLTEwIiwiYSI6IjAifV19.koSwhJ-zCRU8bFAKFfQAa5aVNd0cfU6HGRmI4OE0tLU/image;s=148x110",
                "2": "https://ireland.apollo.olxcdn.com/v1/files/eyJmbiI6InE2czM2ZjhsMnhsYy1BVVRPVklUUk8iLCJ3IjpbeyJmbiI6InE3bXo1M2JpZnB6ay1BVVRPVklUUk8iLCJzIjoiMTYiLCJwIjoiMTAsLTEwIiwiYSI6IjAifV19.koSwhJ-zCRU8bFAKFfQAa5aVNd0cfU6HGRmI4OE0tLU/image;s=320x240",
                "4": "https://ireland.apollo.olxcdn.com/v1/files/eyJmbiI6InE2czM2ZjhsMnhsYy1BVVRPVklUUk8ifQ.wIY48hAi7JjsjGfP4oorOBdO0TP0JD0xL2DhZx3ErFI/image;s=1280x800"
            },
            {
                "3": "https://ireland.apollo.olxcdn.com/v1/files/eyJmbiI6InpvcGJncjdudmhjZjMtQVVUT1ZJVFJPIiwidyI6W3siZm4iOiJxN216NTNiaWZwemstQVVUT1ZJVFJPIiwicyI6IjE2IiwicCI6IjEwLC0xMCIsImEiOiIwIn1dfQ.iS63UwjJM_Y6kOaXA6k3CL0m9Zwuw_AX5aradtQwRz8/image;s=1080x720",
                "0": "https://ireland.apollo.olxcdn.com/v1/files/eyJmbiI6InpvcGJncjdudmhjZjMtQVVUT1ZJVFJPIiwidyI6W3siZm4iOiJxN216NTNiaWZwemstQVVUT1ZJVFJPIiwicyI6IjE2IiwicCI6IjEwLC0xMCIsImEiOiIwIn1dfQ.iS63UwjJM_Y6kOaXA6k3CL0m9Zwuw_AX5aradtQwRz8/image;s=732x488",
                "1": "https://ireland.apollo.olxcdn.com/v1/files/eyJmbiI6InpvcGJncjdudmhjZjMtQVVUT1ZJVFJPIiwidyI6W3siZm4iOiJxN216NTNiaWZwemstQVVUT1ZJVFJPIiwicyI6IjE2IiwicCI6IjEwLC0xMCIsImEiOiIwIn1dfQ.iS63UwjJM_Y6kOaXA6k3CL0m9Zwuw_AX5aradtQwRz8/image;s=148x110",
                "2": "https://ireland.apollo.olxcdn.com/v1/files/eyJmbiI6InpvcGJncjdudmhjZjMtQVVUT1ZJVFJPIiwidyI6W3siZm4iOiJxN216NTNiaWZwemstQVVUT1ZJVFJPIiwicyI6IjE2IiwicCI6IjEwLC0xMCIsImEiOiIwIn1dfQ.iS63UwjJM_Y6kOaXA6k3CL0m9Zwuw_AX5aradtQwRz8/image;s=320x240",
                "4": "https://ireland.apollo.olxcdn.com/v1/files/eyJmbiI6InpvcGJncjdudmhjZjMtQVVUT1ZJVFJPIn0.0OTu-yPdoHqiEfyrTH5JQimPUxOYXpkl4V1dzNbd_eE/image;s=1280x800"
            },
            {
                "3": "https://ireland.apollo.olxcdn.com/v1/files/eyJmbiI6Inp0azF4Nnk5bXpsdDMtQVVUT1ZJVFJPIiwidyI6W3siZm4iOiJxN216NTNiaWZwemstQVVUT1ZJVFJPIiwicyI6IjE2IiwicCI6IjEwLC0xMCIsImEiOiIwIn1dfQ.k8SEqVBXvXogeo3qanuW8zMH8eU8SEFKIqmJ_EbZDR4/image;s=1080x720",
                "0": "https://ireland.apollo.olxcdn.com/v1/files/eyJmbiI6Inp0azF4Nnk5bXpsdDMtQVVUT1ZJVFJPIiwidyI6W3siZm4iOiJxN216NTNiaWZwemstQVVUT1ZJVFJPIiwicyI6IjE2IiwicCI6IjEwLC0xMCIsImEiOiIwIn1dfQ.k8SEqVBXvXogeo3qanuW8zMH8eU8SEFKIqmJ_EbZDR4/image;s=732x488",
                "1": "https://ireland.apollo.olxcdn.com/v1/files/eyJmbiI6Inp0azF4Nnk5bXpsdDMtQVVUT1ZJVFJPIiwidyI6W3siZm4iOiJxN216NTNiaWZwemstQVVUT1ZJVFJPIiwicyI6IjE2IiwicCI6IjEwLC0xMCIsImEiOiIwIn1dfQ.k8SEqVBXvXogeo3qanuW8zMH8eU8SEFKIqmJ_EbZDR4/image;s=148x110",
                "2": "https://ireland.apollo.olxcdn.com/v1/files/eyJmbiI6Inp0azF4Nnk5bXpsdDMtQVVUT1ZJVFJPIiwidyI6W3siZm4iOiJxN216NTNiaWZwemstQVVUT1ZJVFJPIiwicyI6IjE2IiwicCI6IjEwLC0xMCIsImEiOiIwIn1dfQ.k8SEqVBXvXogeo3qanuW8zMH8eU8SEFKIqmJ_EbZDR4/image;s=320x240",
                "4": "https://ireland.apollo.olxcdn.com/v1/files/eyJmbiI6Inp0azF4Nnk5bXpsdDMtQVVUT1ZJVFJPIn0.j5CeFPfdb0BuIjnTfzJoBZYEEJmhAn4EOvqP2V-F9m4/image;s=1280x800"
            },
            {
                "3": "https://ireland.apollo.olxcdn.com/v1/files/eyJmbiI6InlkZjk5NzJrZHY0MjMtQVVUT1ZJVFJPIiwidyI6W3siZm4iOiJxN216NTNiaWZwemstQVVUT1ZJVFJPIiwicyI6IjE2IiwicCI6IjEwLC0xMCIsImEiOiIwIn1dfQ.yWEoBqNpVH8EpEMteCexUfjBfu5HoEe7x1rWpg78Pvc/image;s=1080x720",
                "0": "https://ireland.apollo.olxcdn.com/v1/files/eyJmbiI6InlkZjk5NzJrZHY0MjMtQVVUT1ZJVFJPIiwidyI6W3siZm4iOiJxN216NTNiaWZwemstQVVUT1ZJVFJPIiwicyI6IjE2IiwicCI6IjEwLC0xMCIsImEiOiIwIn1dfQ.yWEoBqNpVH8EpEMteCexUfjBfu5HoEe7x1rWpg78Pvc/image;s=732x488",
                "1": "https://ireland.apollo.olxcdn.com/v1/files/eyJmbiI6InlkZjk5NzJrZHY0MjMtQVVUT1ZJVFJPIiwidyI6W3siZm4iOiJxN216NTNiaWZwemstQVVUT1ZJVFJPIiwicyI6IjE2IiwicCI6IjEwLC0xMCIsImEiOiIwIn1dfQ.yWEoBqNpVH8EpEMteCexUfjBfu5HoEe7x1rWpg78Pvc/image;s=148x110",
                "2": "https://ireland.apollo.olxcdn.com/v1/files/eyJmbiI6InlkZjk5NzJrZHY0MjMtQVVUT1ZJVFJPIiwidyI6W3siZm4iOiJxN216NTNiaWZwemstQVVUT1ZJVFJPIiwicyI6IjE2IiwicCI6IjEwLC0xMCIsImEiOiIwIn1dfQ.yWEoBqNpVH8EpEMteCexUfjBfu5HoEe7x1rWpg78Pvc/image;s=320x240",
                "4": "https://ireland.apollo.olxcdn.com/v1/files/eyJmbiI6InlkZjk5NzJrZHY0MjMtQVVUT1ZJVFJPIn0.u_jiX-oI7ljJzAkS4OoUiSJ9rW_1PAHCZ8SYQTmldnI/image;s=1280x800"
            },
            {
                "3": "https://ireland.apollo.olxcdn.com/v1/files/eyJmbiI6ImpkMDlpeThsNHM3MDEtQVVUT1ZJVFJPIiwidyI6W3siZm4iOiJxN216NTNiaWZwemstQVVUT1ZJVFJPIiwicyI6IjE2IiwicCI6IjEwLC0xMCIsImEiOiIwIn1dfQ.H1rL0bJ54r8IKFLGs6ZdKnaFJNSihFFsrFPUipj0RgQ/image;s=1080x720",
                "0": "https://ireland.apollo.olxcdn.com/v1/files/eyJmbiI6ImpkMDlpeThsNHM3MDEtQVVUT1ZJVFJPIiwidyI6W3siZm4iOiJxN216NTNiaWZwemstQVVUT1ZJVFJPIiwicyI6IjE2IiwicCI6IjEwLC0xMCIsImEiOiIwIn1dfQ.H1rL0bJ54r8IKFLGs6ZdKnaFJNSihFFsrFPUipj0RgQ/image;s=732x488",
                "1": "https://ireland.apollo.olxcdn.com/v1/files/eyJmbiI6ImpkMDlpeThsNHM3MDEtQVVUT1ZJVFJPIiwidyI6W3siZm4iOiJxN216NTNiaWZwemstQVVUT1ZJVFJPIiwicyI6IjE2IiwicCI6IjEwLC0xMCIsImEiOiIwIn1dfQ.H1rL0bJ54r8IKFLGs6ZdKnaFJNSihFFsrFPUipj0RgQ/image;s=148x110",
                "2": "https://ireland.apollo.olxcdn.com/v1/files/eyJmbiI6ImpkMDlpeThsNHM3MDEtQVVUT1ZJVFJPIiwidyI6W3siZm4iOiJxN216NTNiaWZwemstQVVUT1ZJVFJPIiwicyI6IjE2IiwicCI6IjEwLC0xMCIsImEiOiIwIn1dfQ.H1rL0bJ54r8IKFLGs6ZdKnaFJNSihFFsrFPUipj0RgQ/image;s=320x240",
                "4": "https://ireland.apollo.olxcdn.com/v1/files/eyJmbiI6ImpkMDlpeThsNHM3MDEtQVVUT1ZJVFJPIn0.XelpnUqnt3TmTZurq8wU-KuY_Fcy4irBP0ZqB4KaWhE/image;s=1280x800"
            },
            {
                "3": "https://ireland.apollo.olxcdn.com/v1/files/eyJmbiI6ImUyN3A0NjRvbzQ5dzItQVVUT1ZJVFJPIiwidyI6W3siZm4iOiJxN216NTNiaWZwemstQVVUT1ZJVFJPIiwicyI6IjE2IiwicCI6IjEwLC0xMCIsImEiOiIwIn1dfQ.j34kHvBJacj_l8V2gsDlDTPYELLDWfSULSSfb-cWCLw/image;s=1080x720",
                "0": "https://ireland.apollo.olxcdn.com/v1/files/eyJmbiI6ImUyN3A0NjRvbzQ5dzItQVVUT1ZJVFJPIiwidyI6W3siZm4iOiJxN216NTNiaWZwemstQVVUT1ZJVFJPIiwicyI6IjE2IiwicCI6IjEwLC0xMCIsImEiOiIwIn1dfQ.j34kHvBJacj_l8V2gsDlDTPYELLDWfSULSSfb-cWCLw/image;s=732x488",
                "1": "https://ireland.apollo.olxcdn.com/v1/files/eyJmbiI6ImUyN3A0NjRvbzQ5dzItQVVUT1ZJVFJPIiwidyI6W3siZm4iOiJxN216NTNiaWZwemstQVVUT1ZJVFJPIiwicyI6IjE2IiwicCI6IjEwLC0xMCIsImEiOiIwIn1dfQ.j34kHvBJacj_l8V2gsDlDTPYELLDWfSULSSfb-cWCLw/image;s=148x110",
                "2": "https://ireland.apollo.olxcdn.com/v1/files/eyJmbiI6ImUyN3A0NjRvbzQ5dzItQVVUT1ZJVFJPIiwidyI6W3siZm4iOiJxN216NTNiaWZwemstQVVUT1ZJVFJPIiwicyI6IjE2IiwicCI6IjEwLC0xMCIsImEiOiIwIn1dfQ.j34kHvBJacj_l8V2gsDlDTPYELLDWfSULSSfb-cWCLw/image;s=320x240",
                "4": "https://ireland.apollo.olxcdn.com/v1/files/eyJmbiI6ImUyN3A0NjRvbzQ5dzItQVVUT1ZJVFJPIn0.aLP6hFLZN_OgVofCS6DWt21W8XxomOce_yOJlTdo40A/image;s=1280x800"
            },
            {
                "3": "https://ireland.apollo.olxcdn.com/v1/files/eyJmbiI6ImdkMzRkanpkbnZobTEtQVVUT1ZJVFJPIiwidyI6W3siZm4iOiJxN216NTNiaWZwemstQVVUT1ZJVFJPIiwicyI6IjE2IiwicCI6IjEwLC0xMCIsImEiOiIwIn1dfQ.yHYMuwsnmG__W0wA6cH7JWu_DZqAamzdM2OKN5pT-MY/image;s=1080x720",
                "0": "https://ireland.apollo.olxcdn.com/v1/files/eyJmbiI6ImdkMzRkanpkbnZobTEtQVVUT1ZJVFJPIiwidyI6W3siZm4iOiJxN216NTNiaWZwemstQVVUT1ZJVFJPIiwicyI6IjE2IiwicCI6IjEwLC0xMCIsImEiOiIwIn1dfQ.yHYMuwsnmG__W0wA6cH7JWu_DZqAamzdM2OKN5pT-MY/image;s=732x488",
                "1": "https://ireland.apollo.olxcdn.com/v1/files/eyJmbiI6ImdkMzRkanpkbnZobTEtQVVUT1ZJVFJPIiwidyI6W3siZm4iOiJxN216NTNiaWZwemstQVVUT1ZJVFJPIiwicyI6IjE2IiwicCI6IjEwLC0xMCIsImEiOiIwIn1dfQ.yHYMuwsnmG__W0wA6cH7JWu_DZqAamzdM2OKN5pT-MY/image;s=148x110",
                "2": "https://ireland.apollo.olxcdn.com/v1/files/eyJmbiI6ImdkMzRkanpkbnZobTEtQVVUT1ZJVFJPIiwidyI6W3siZm4iOiJxN216NTNiaWZwemstQVVUT1ZJVFJPIiwicyI6IjE2IiwicCI6IjEwLC0xMCIsImEiOiIwIn1dfQ.yHYMuwsnmG__W0wA6cH7JWu_DZqAamzdM2OKN5pT-MY/image;s=320x240",
                "4": "https://ireland.apollo.olxcdn.com/v1/files/eyJmbiI6ImdkMzRkanpkbnZobTEtQVVUT1ZJVFJPIn0.xyS1-uue4qsi4QBelLw4ZBjEGtcrBOJUtm3v6mctHaw/image;s=1280x800"
            },
            {
                "3": "https://ireland.apollo.olxcdn.com/v1/files/eyJmbiI6IjQwcjF4dDJmNDg3bjItQVVUT1ZJVFJPIiwidyI6W3siZm4iOiJxN216NTNiaWZwemstQVVUT1ZJVFJPIiwicyI6IjE2IiwicCI6IjEwLC0xMCIsImEiOiIwIn1dfQ.YykftYS-xiffxZWZVEF6ZkbFS8kq_2-P9Qj4soBmz8s/image;s=1080x720",
                "0": "https://ireland.apollo.olxcdn.com/v1/files/eyJmbiI6IjQwcjF4dDJmNDg3bjItQVVUT1ZJVFJPIiwidyI6W3siZm4iOiJxN216NTNiaWZwemstQVVUT1ZJVFJPIiwicyI6IjE2IiwicCI6IjEwLC0xMCIsImEiOiIwIn1dfQ.YykftYS-xiffxZWZVEF6ZkbFS8kq_2-P9Qj4soBmz8s/image;s=732x488",
                "1": "https://ireland.apollo.olxcdn.com/v1/files/eyJmbiI6IjQwcjF4dDJmNDg3bjItQVVUT1ZJVFJPIiwidyI6W3siZm4iOiJxN216NTNiaWZwemstQVVUT1ZJVFJPIiwicyI6IjE2IiwicCI6IjEwLC0xMCIsImEiOiIwIn1dfQ.YykftYS-xiffxZWZVEF6ZkbFS8kq_2-P9Qj4soBmz8s/image;s=148x110",
                "2": "https://ireland.apollo.olxcdn.com/v1/files/eyJmbiI6IjQwcjF4dDJmNDg3bjItQVVUT1ZJVFJPIiwidyI6W3siZm4iOiJxN216NTNiaWZwemstQVVUT1ZJVFJPIiwicyI6IjE2IiwicCI6IjEwLC0xMCIsImEiOiIwIn1dfQ.YykftYS-xiffxZWZVEF6ZkbFS8kq_2-P9Qj4soBmz8s/image;s=320x240",
                "4": "https://ireland.apollo.olxcdn.com/v1/files/eyJmbiI6IjQwcjF4dDJmNDg3bjItQVVUT1ZJVFJPIn0.dlnfqKZcfWLR1su8xMyFdjvy8k2HrgyWb7C6QR3VW2M/image;s=1280x800"
            },
            {
                "3": "https://ireland.apollo.olxcdn.com/v1/files/eyJmbiI6InNzdHMyY3Q0OHIwai1BVVRPVklUUk8iLCJ3IjpbeyJmbiI6InE3bXo1M2JpZnB6ay1BVVRPVklUUk8iLCJzIjoiMTYiLCJwIjoiMTAsLTEwIiwiYSI6IjAifV19.Sn48_emBEEJkBO-cFa5y2fDT645CCGH5psBPvbNYGbY/image;s=1080x720",
                "0": "https://ireland.apollo.olxcdn.com/v1/files/eyJmbiI6InNzdHMyY3Q0OHIwai1BVVRPVklUUk8iLCJ3IjpbeyJmbiI6InE3bXo1M2JpZnB6ay1BVVRPVklUUk8iLCJzIjoiMTYiLCJwIjoiMTAsLTEwIiwiYSI6IjAifV19.Sn48_emBEEJkBO-cFa5y2fDT645CCGH5psBPvbNYGbY/image;s=732x488",
                "1": "https://ireland.apollo.olxcdn.com/v1/files/eyJmbiI6InNzdHMyY3Q0OHIwai1BVVRPVklUUk8iLCJ3IjpbeyJmbiI6InE3bXo1M2JpZnB6ay1BVVRPVklUUk8iLCJzIjoiMTYiLCJwIjoiMTAsLTEwIiwiYSI6IjAifV19.Sn48_emBEEJkBO-cFa5y2fDT645CCGH5psBPvbNYGbY/image;s=148x110",
                "2": "https://ireland.apollo.olxcdn.com/v1/files/eyJmbiI6InNzdHMyY3Q0OHIwai1BVVRPVklUUk8iLCJ3IjpbeyJmbiI6InE3bXo1M2JpZnB6ay1BVVRPVklUUk8iLCJzIjoiMTYiLCJwIjoiMTAsLTEwIiwiYSI6IjAifV19.Sn48_emBEEJkBO-cFa5y2fDT645CCGH5psBPvbNYGbY/image;s=320x240",
                "4": "https://ireland.apollo.olxcdn.com/v1/files/eyJmbiI6InNzdHMyY3Q0OHIwai1BVVRPVklUUk8ifQ.c2JfKSbtkwd4aEJZOYvJ1yST-KP-twnlQK83wyZxz94/image;s=1280x800"
            },
            {
                "3": "https://ireland.apollo.olxcdn.com/v1/files/eyJmbiI6IjBkOGo0bzkwMmlhNy1BVVRPVklUUk8iLCJ3IjpbeyJmbiI6InE3bXo1M2JpZnB6ay1BVVRPVklUUk8iLCJzIjoiMTYiLCJwIjoiMTAsLTEwIiwiYSI6IjAifV19.nrR9xfECj4dfXzQBYoZS47UaFIjb67FcTDsXajO42vw/image;s=1080x720",
                "0": "https://ireland.apollo.olxcdn.com/v1/files/eyJmbiI6IjBkOGo0bzkwMmlhNy1BVVRPVklUUk8iLCJ3IjpbeyJmbiI6InE3bXo1M2JpZnB6ay1BVVRPVklUUk8iLCJzIjoiMTYiLCJwIjoiMTAsLTEwIiwiYSI6IjAifV19.nrR9xfECj4dfXzQBYoZS47UaFIjb67FcTDsXajO42vw/image;s=732x488",
                "1": "https://ireland.apollo.olxcdn.com/v1/files/eyJmbiI6IjBkOGo0bzkwMmlhNy1BVVRPVklUUk8iLCJ3IjpbeyJmbiI6InE3bXo1M2JpZnB6ay1BVVRPVklUUk8iLCJzIjoiMTYiLCJwIjoiMTAsLTEwIiwiYSI6IjAifV19.nrR9xfECj4dfXzQBYoZS47UaFIjb67FcTDsXajO42vw/image;s=148x110",
                "2": "https://ireland.apollo.olxcdn.com/v1/files/eyJmbiI6IjBkOGo0bzkwMmlhNy1BVVRPVklUUk8iLCJ3IjpbeyJmbiI6InE3bXo1M2JpZnB6ay1BVVRPVklUUk8iLCJzIjoiMTYiLCJwIjoiMTAsLTEwIiwiYSI6IjAifV19.nrR9xfECj4dfXzQBYoZS47UaFIjb67FcTDsXajO42vw/image;s=320x240",
                "4": "https://ireland.apollo.olxcdn.com/v1/files/eyJmbiI6IjBkOGo0bzkwMmlhNy1BVVRPVklUUk8ifQ.yuwed_bg79YmWuXSnv3oF7oCQyCw7UNNrLVRzRyy82Y/image;s=1280x800"
            },
            {
                "3": "https://ireland.apollo.olxcdn.com/v1/files/eyJmbiI6IjMxb2VuaXF0dmRoeDEtQVVUT1ZJVFJPIiwidyI6W3siZm4iOiJxN216NTNiaWZwemstQVVUT1ZJVFJPIiwicyI6IjE2IiwicCI6IjEwLC0xMCIsImEiOiIwIn1dfQ.BUP8Kcti1Fp8T11UG8Rl9boRH5nUM2ub7iI0gPzxlLA/image;s=1080x720",
                "0": "https://ireland.apollo.olxcdn.com/v1/files/eyJmbiI6IjMxb2VuaXF0dmRoeDEtQVVUT1ZJVFJPIiwidyI6W3siZm4iOiJxN216NTNiaWZwemstQVVUT1ZJVFJPIiwicyI6IjE2IiwicCI6IjEwLC0xMCIsImEiOiIwIn1dfQ.BUP8Kcti1Fp8T11UG8Rl9boRH5nUM2ub7iI0gPzxlLA/image;s=732x488",
                "1": "https://ireland.apollo.olxcdn.com/v1/files/eyJmbiI6IjMxb2VuaXF0dmRoeDEtQVVUT1ZJVFJPIiwidyI6W3siZm4iOiJxN216NTNiaWZwemstQVVUT1ZJVFJPIiwicyI6IjE2IiwicCI6IjEwLC0xMCIsImEiOiIwIn1dfQ.BUP8Kcti1Fp8T11UG8Rl9boRH5nUM2ub7iI0gPzxlLA/image;s=148x110",
                "2": "https://ireland.apollo.olxcdn.com/v1/files/eyJmbiI6IjMxb2VuaXF0dmRoeDEtQVVUT1ZJVFJPIiwidyI6W3siZm4iOiJxN216NTNiaWZwemstQVVUT1ZJVFJPIiwicyI6IjE2IiwicCI6IjEwLC0xMCIsImEiOiIwIn1dfQ.BUP8Kcti1Fp8T11UG8Rl9boRH5nUM2ub7iI0gPzxlLA/image;s=320x240",
                "4": "https://ireland.apollo.olxcdn.com/v1/files/eyJmbiI6IjMxb2VuaXF0dmRoeDEtQVVUT1ZJVFJPIn0.rhxdu9QFao8LE8TpOpZGn5-BtAXsjpC_lyTnI2eYBaQ/image;s=1280x800"
            }
        ],
        "features": [
            "ABS",
            "Airbag-uri frontale",
            "Airbag-uri laterale fata",
            "CD",
            "Computer de bord",
            "Controlul stabilitatii (ESP)",
            "Geamuri fata electrice",
            "Inchidere centralizata",
            "Radio",
            "Servodirectie",
            "Aer conditionat",
            "Bluetooth",
            "Geamuri cu tenta",
            "Geamuri laterale spate fumurii",
            "Oglinda retrovizoare interioara electrocromatica",
            "Pilot automat",
            "Proiectoare ceata"
        ],
        "ad_homepage": false,
        "ads_bighomepage": false,
        "ad_featured": 0,
        "hasDealerPackageMapFeature": true,
        "badges": {
            "fast_response": true
        }
    }
]